{
    "page": 2,
    "per_page": 6,
    "total": 12,
    "total_pages": 2,
    "data": [
        {
            "name": "inferno",
            "map": "https://raw.githubusercontent.com/AbianS/mapas/master/inferno.jpg"
        },
        {
            "name": "mirage",
            "map": "https://raw.githubusercontent.com/AbianS/mapas/master/mirage.jpg"
        },
        {
            "name": "nuke",
            "map": "https://raw.githubusercontent.com/AbianS/mapas/master/nuke.jpg"
        },
        {
            "name": "overpass",
            "map": "https://raw.githubusercontent.com/AbianS/mapas/master/overpass.jpg"
        }
    ]
}